{
	"API": {
		"-name": "APITemplate",
		"-group": "APITemplate",
		"-version": "1.0",
		"-uri": "http://test.com/APITemplate/",
		"Case": [
			{
				"-title": "Demo",
				"Argument": [
					{
						"-name": "Expect RS",
						"-type": "String",
						"-role": "ExpectedResult",
						"-condition": "",
						"Data": [
							{
								"-idx": "1",
								"#text": "1"
							},
							{
								"-idx": "2",
								"#text": "2"
							},
							{
								"-idx": "3",
								"#text": "3"
							},
							{
								"-idx": "4",
								"#text": "4"
							},
							{
								"-idx": "5",
								"#text": "5"
							}
						]
					},
					{
						"-name": "Expect RS",
						"-type": "String",
						"-role": "ExpectedResult",
						"-condition": "",
						"Data": [
							{
								"-idx": "1",
								"#text": "1"
							},
							{
								"-idx": "2",
								"#text": "2"
							},
							{
								"-idx": "3",
								"#text": "3"
							},
							{
								"-idx": "4",
								"#text": "4"
							},
							{
								"-idx": "5",
								"#text": "5"
							}
						]
					}
				]
			}
		]
	}
}