{
	"Roles": [
        "Response",
        "Body",
        "Header",
        "Action",
        "Param",
        "TestObjective",
        "ExpectedResult"
    ],
	"Types": [
		"String",
		"Number",
		"Boolean",
		"Object",
		"List"
	]
}